…
"Knock down the flagpole at the gate!" said Kashapa.

Commentary: Mumon's Comments:

If you can give a "turning word" (a momentous word for awakening), you will see the meeting at Mount Grdhrahuta? still in session. If not, no matter how much you make struggles to study from the age of Vipasyin, you cannot attain enlightenment.

Capping Verse: How is Ananda's question, compared to Kashapa's answer of heart. How many people have since then opened their eyes. Elder brother calls and younger brother answers--the family disgrace. This spring does not belong to Yin and Yang.

Quickly bind all four collections
---------------------------------

``` r
collect_koans()
#> # A tibble: 819 x 4
#>    collection         case type       text                                
#>    <chr>             <int> <chr>      <chr>                               
#>  1 Blue Cliff Record     1 title      "Bodhidharma's \"Clear and Void\""  
#>  2 Blue Cliff Record     1 main_case  "Emperor Bu of Ryô asked Great Mast…
#>  3 Blue Cliff Record     2 title      "Jôshû's \"Supreme Way\""           
#>  4 Blue Cliff Record     2 main_case  "Jôshû, instructing the assembly, s…
#>  5 Blue Cliff Record     3 title      Master Ba Is Ill                    
#>  6 Blue Cliff Record     3 main_case  "Great Master Ba was seriously ill.…
#>  7 Blue Cliff Record     4 title      Tokusan with His Bundle             
#>  8 Blue Cliff Record     4 main_case  "Tokusan arrived at Isan. Carrying …
#>  9 Blue Cliff Record     4 commentary "(Setchô commented: \"Seen through!…
#> 10 Blue Cliff Record     5 title      "Seppô's \"Grain of Rice\""         
#> # ... with 809 more rows
```
